(module SMA (layer F.Cu) (tedit 563F57DB)
  (fp_text reference REF** (at -3.5 -4.5) (layer F.SilkS)
    (effects (font (size 1 1) (thickness 0.15)))
  )
  (fp_text value SMA (at -5 0) (layer F.Fab)
    (effects (font (size 1 1) (thickness 0.15)))
  )
  (fp_line (start 0 -0.5) (end 3 -0.5) (layer F.SilkS) (width 0.15))
  (fp_line (start 3 -0.5) (end 3 0.5) (layer F.SilkS) (width 0.15))
  (fp_line (start 3 0.5) (end 0 0.5) (layer F.SilkS) (width 0.15))
  (fp_line (start -7 -3.5) (end -8 -2.5) (layer F.SilkS) (width 0.15))
  (fp_line (start -8 -2.5) (end -8 2) (layer F.SilkS) (width 0.15))
  (fp_line (start -8 2) (end -7 3) (layer F.SilkS) (width 0.15))
  (fp_line (start -3 -2.5) (end -3 -3.5) (layer F.SilkS) (width 0.15))
  (fp_line (start -3 -3.5) (end -7 -3.5) (layer F.SilkS) (width 0.15))
  (fp_line (start -7 -3.5) (end -7 3) (layer F.SilkS) (width 0.15))
  (fp_line (start -7 3) (end -3 3) (layer F.SilkS) (width 0.15))
  (fp_line (start -3 3) (end -3 2.5) (layer F.SilkS) (width 0.15))
  (fp_line (start -1 2.5) (end -3 2.5) (layer F.SilkS) (width 0.15))
  (fp_line (start -3 2.5) (end -3 -2.5) (layer F.SilkS) (width 0.15))
  (fp_line (start -3 -2.5) (end -1 -2.5) (layer F.SilkS) (width 0.15))
  (fp_line (start 3 -4) (end 3 -3) (layer F.SilkS) (width 0.15))
  (fp_line (start 3 -3) (end 0 -3) (layer F.SilkS) (width 0.15))
  (fp_line (start 0 -3) (end 0 3) (layer F.SilkS) (width 0.15))
  (fp_line (start 0 3) (end 3 3) (layer F.SilkS) (width 0.15))
  (fp_line (start 3 3) (end 3 4) (layer F.SilkS) (width 0.15))
  (fp_line (start 3 4) (end -0.5 4) (layer F.SilkS) (width 0.15))
  (fp_line (start -0.5 4) (end -1 4) (layer F.SilkS) (width 0.15))
  (fp_line (start -1 4) (end -1 -4) (layer F.SilkS) (width 0.15))
  (fp_line (start -1 -4) (end 3 -4) (layer F.SilkS) (width 0.15))
  (pad 1 smd rect (at 4 0) (size 8 1) (layers F.Cu F.Paste F.Mask))
  (pad 2 smd rect (at 2 -3.5) (size 4 3) (layers F.Cu F.Paste F.Mask))
  (pad 2 smd rect (at 2 3.5) (size 4 3) (layers F.Cu F.Paste F.Mask))
)
