(module Socket_Strips:Socket_Strip_Straight_2x05_Pitch2.54mm (layer F.Cu) (tedit 5AE0F6F6)
  (descr "Through hole straight socket strip, 2x05, 2.54mm pitch, double rows")
  (tags "Through hole socket strip THT 2x05 2.54mm double row")
  (fp_text reference J? (at -3.77 12.83) (layer F.SilkS)
    (effects (font (size 1 1) (thickness 0.15)))
  )
  (fp_text value ADF4350_Eval (at 1.31 -1.99) (layer F.Fab)
    (effects (font (size 1 1) (thickness 0.15)))
  )
  (fp_line (start 7 -30) (end 7 -40) (layer F.SilkS) (width 0.15))
  (fp_line (start 7 -40) (end 14 -40) (layer F.SilkS) (width 0.15))
  (fp_line (start 14 -40) (end 14 -30) (layer F.SilkS) (width 0.15))
  (fp_line (start -7 20) (end 30 20) (layer F.SilkS) (width 0.15))
  (fp_line (start 30 20) (end 30 -30) (layer F.SilkS) (width 0.15))
  (fp_line (start 30 -30) (end -7 -30) (layer F.SilkS) (width 0.15))
  (fp_line (start -7 20) (end -7 -30) (layer F.SilkS) (width 0.15))
  (fp_line (start 3.85 11.77) (end 3.85 -0.93) (layer F.Fab) (width 0.1))
  (fp_line (start 3.85 -0.93) (end -1.23 -0.93) (layer F.Fab) (width 0.1))
  (fp_line (start -1.23 -0.93) (end -1.23 11.77) (layer F.Fab) (width 0.1))
  (fp_line (start -1.23 11.77) (end 3.85 11.77) (layer F.Fab) (width 0.1))
  (fp_line (start -1.29 9.23) (end -1.29 -0.99) (layer F.SilkS) (width 0.12))
  (fp_line (start -1.29 -0.99) (end 3.91 -0.99) (layer F.SilkS) (width 0.12))
  (fp_line (start 3.91 -0.99) (end 3.91 11.83) (layer F.SilkS) (width 0.12))
  (fp_line (start 3.91 11.83) (end 1.31 11.83) (layer F.SilkS) (width 0.12))
  (fp_line (start 1.31 11.83) (end 1.31 9.23) (layer F.SilkS) (width 0.12))
  (fp_line (start 1.31 9.23) (end -1.29 9.23) (layer F.SilkS) (width 0.12))
  (fp_line (start -1.29 10.5) (end -1.29 11.83) (layer F.SilkS) (width 0.12))
  (fp_line (start -1.29 11.83) (end -0.02 11.83) (layer F.SilkS) (width 0.12))
  (fp_line (start 4.39 12.3) (end 4.39 -1.45) (layer F.CrtYd) (width 0.05))
  (fp_line (start 4.39 -1.45) (end -1.76 -1.45) (layer F.CrtYd) (width 0.05))
  (fp_line (start -1.76 -1.45) (end -1.76 12.3) (layer F.CrtYd) (width 0.05))
  (fp_line (start -1.76 12.3) (end 4.39 12.3) (layer F.CrtYd) (width 0.05))
  (fp_text user %R (at -3.77 12.83 180) (layer F.Fab)
    (effects (font (size 1 1) (thickness 0.15)))
  )
  (pad 1 thru_hole rect (at 0 10.16 180) (size 1.7 1.7) (drill 1) (layers *.Cu *.Mask))
  (pad 2 thru_hole oval (at 2.54 10.16 180) (size 1.7 1.7) (drill 1) (layers *.Cu *.Mask))
  (pad 3 thru_hole oval (at 0 7.62 180) (size 1.7 1.7) (drill 1) (layers *.Cu *.Mask))
  (pad 4 thru_hole oval (at 2.54 7.62 180) (size 1.7 1.7) (drill 1) (layers *.Cu *.Mask))
  (pad 5 thru_hole oval (at 0 5.08 180) (size 1.7 1.7) (drill 1) (layers *.Cu *.Mask))
  (pad 6 thru_hole oval (at 2.54 5.08 180) (size 1.7 1.7) (drill 1) (layers *.Cu *.Mask))
  (pad 7 thru_hole oval (at 0 2.54 180) (size 1.7 1.7) (drill 1) (layers *.Cu *.Mask))
  (pad 8 thru_hole oval (at 2.54 2.54 180) (size 1.7 1.7) (drill 1) (layers *.Cu *.Mask))
  (pad 9 thru_hole oval (at 0.04 0 180) (size 1.7 1.7) (drill 1) (layers *.Cu *.Mask))
  (pad 10 thru_hole oval (at 2.54 0 180) (size 1.7 1.7) (drill 1) (layers *.Cu *.Mask))
  (model ${KISYS3DMOD}/Socket_Strips.3dshapes/Socket_Strip_Straight_2x05_Pitch2.54mm.wrl
    (at (xyz -0.05 -0.2 0))
    (scale (xyz 1 1 1))
    (rotate (xyz 0 0 270))
  )
)
