(module Arduino_Mini_pro (layer F.Cu) (tedit 563F6386)
  (fp_text reference REF** (at 0 2.54) (layer F.SilkS)
    (effects (font (size 1 1) (thickness 0.15)))
  )
  (fp_text value "Arduino Mini pro" (at 0 0) (layer F.Fab)
    (effects (font (size 1 1) (thickness 0.15)))
  )
  (fp_line (start -8.89 -17.78) (end -8.89 16.51) (layer F.SilkS) (width 0.15))
  (fp_line (start -8.89 16.51) (end 8.89 16.51) (layer F.SilkS) (width 0.15))
  (fp_line (start 8.89 16.51) (end 8.89 -17.78) (layer F.SilkS) (width 0.15))
  (fp_line (start 8.89 -17.78) (end -8.89 -17.78) (layer F.SilkS) (width 0.15))
  (pad 1 thru_hole circle (at -7.62 -12.7) (size 1.524 1.524) (drill 0.762) (layers *.Cu *.Mask F.SilkS))
  (pad 2 thru_hole circle (at -7.62 -10.16) (size 1.524 1.524) (drill 0.762) (layers *.Cu *.Mask F.SilkS))
  (pad 3 thru_hole circle (at -7.62 -7.62) (size 1.524 1.524) (drill 0.762) (layers *.Cu *.Mask F.SilkS))
  (pad 4 thru_hole circle (at -7.62 -5.08) (size 1.524 1.524) (drill 0.762) (layers *.Cu *.Mask F.SilkS))
  (pad 5 thru_hole circle (at -7.62 -2.54) (size 1.524 1.524) (drill 0.762) (layers *.Cu *.Mask F.SilkS))
  (pad 6 thru_hole circle (at -7.62 0) (size 1.524 1.524) (drill 0.762) (layers *.Cu *.Mask F.SilkS))
  (pad 7 thru_hole circle (at -7.62 2.54) (size 1.524 1.524) (drill 0.762) (layers *.Cu *.Mask F.SilkS))
  (pad 8 thru_hole circle (at -7.62 5.08) (size 1.524 1.524) (drill 0.762) (layers *.Cu *.Mask F.SilkS))
  (pad 9 thru_hole circle (at -7.62 7.62) (size 1.524 1.524) (drill 0.762) (layers *.Cu *.Mask F.SilkS))
  (pad 10 thru_hole circle (at -7.62 10.16) (size 1.524 1.524) (drill 0.762) (layers *.Cu *.Mask F.SilkS))
  (pad 11 thru_hole circle (at -7.62 12.7) (size 1.524 1.524) (drill 0.762) (layers *.Cu *.Mask F.SilkS))
  (pad 12 thru_hole circle (at -7.62 15.24) (size 1.524 1.524) (drill 0.762) (layers *.Cu *.Mask F.SilkS))
  (pad 13 thru_hole circle (at 7.62 15.24) (size 1.524 1.524) (drill 0.762) (layers *.Cu *.Mask F.SilkS))
  (pad 14 thru_hole circle (at 7.62 12.7) (size 1.524 1.524) (drill 0.762) (layers *.Cu *.Mask F.SilkS))
  (pad 15 thru_hole circle (at 7.62 10.16) (size 1.524 1.524) (drill 0.762) (layers *.Cu *.Mask F.SilkS))
  (pad 16 thru_hole circle (at 7.62 7.62) (size 1.524 1.524) (drill 0.762) (layers *.Cu *.Mask F.SilkS))
  (pad 17 thru_hole circle (at 7.62 5.08) (size 1.524 1.524) (drill 0.762) (layers *.Cu *.Mask F.SilkS))
  (pad 18 thru_hole circle (at 7.62 2.54) (size 1.524 1.524) (drill 0.762) (layers *.Cu *.Mask F.SilkS))
  (pad 19 thru_hole circle (at 7.62 0) (size 1.524 1.524) (drill 0.762) (layers *.Cu *.Mask F.SilkS))
  (pad 20 thru_hole circle (at 7.62 -2.54) (size 1.524 1.524) (drill 0.762) (layers *.Cu *.Mask F.SilkS))
  (pad 21 thru_hole circle (at 7.62 -5.08) (size 1.524 1.524) (drill 0.762) (layers *.Cu *.Mask F.SilkS))
  (pad 22 thru_hole circle (at 7.62 -7.62) (size 1.524 1.524) (drill 0.762) (layers *.Cu *.Mask F.SilkS))
  (pad 23 thru_hole circle (at 7.62 -10.16) (size 1.524 1.524) (drill 0.762) (layers *.Cu *.Mask F.SilkS))
  (pad 24 thru_hole circle (at 7.62 -12.7) (size 1.524 1.524) (drill 0.762) (layers *.Cu *.Mask F.SilkS))
  (pad 32 thru_hole circle (at -3.81 15.24) (size 1.524 1.524) (drill 0.762) (layers *.Cu *.Mask F.SilkS))
  (pad 33 thru_hole circle (at -1.27 15.24) (size 1.524 1.524) (drill 0.762) (layers *.Cu *.Mask F.SilkS))
  (pad 34 thru_hole circle (at 1.27 15.24) (size 1.524 1.524) (drill 0.762) (layers *.Cu *.Mask F.SilkS))
  (pad 35 thru_hole circle (at 3.81 15.24) (size 1.524 1.524) (drill 0.762) (layers *.Cu *.Mask F.SilkS))
)
